﻿,,,,,,,,,,,,,,,,,,,,,,,,,,,,,,,,,,,,,,,,,,,,,,,,,,,,,,,,,,,,,,,,,,,,,,,,,,,,,
,,,,,,,,,,,,,,,,,,,,,,,,,,,,,,,,,,,,,,,,,,,,,,,,,,,,,,,,,,,,,,,,,,,,,,,,,,,,,
,,,,,,,,,,,,,,,,,,,,,,,,,,,,,,,,,,,,,,,,,,,,,,,,,,,,,,,,,,,,,,,,,,,,,,,,,,,,,
,,"Working time : (07:45 - 15:45) , (19:45 - 03:45)",,,,,,,"Break : (TBM 07:45 - 08:00) , (12:00 - 13:00) , (19:45 - 20:00) , (00:00 - 00:30) , (03:00 - 04:00)",,,,,,,,,,,,,,,,,,,,,,,,,,,,,,,,,,,,,,,,,,,,,,,,,,,,,,,,,,,,,,,,,,,,
,,"Overtime : (15:45 - 19:45) , (03:45 - 07:45)",,,,,,,Break : (18:00 - 18:30),,,,,,,,,,,,,,,,,,,,,,,,,,,,,,,,,,,,,,,,,,,,,,,,,,,,,,,,,,,,,,,,,,,,
No,โตโยต้า,Route,Truck ,Shipping lane,Wating post,,Shopping 32min,,Prepare 16min,,Checker 32min,,รอบเวลามารับที่ TSG1-A,,"รอบกำหนดเวลาส่ง TMT Period P10 : 
01 Oct - 01 Nov",,,,,,,,,,,,,,,,,,,,,,,,,,,,,,,,,,,,,,,,,,,,,,,,,,,,,,,,,,,,,,
,,Code,No.,No.,in,out,Start,Finish,Start,Finish,Start,Finish,in,out,in,out,,,,,,,,,,,,,,,,,,,,,,,,,,,,,,,,,,,,,,,,,,,,,,,,,,,,,,,,,,,,,
1,BanPho TSG-A-T1-T2-T3(P3) 1:6:X,CC13,1,"1,2",,,10:56 ,11:28 ,11:28 ,11:44 ,11:44 ,13:16 ,13:56,14:26,15:40,16:15,,,,,,,,,,,,,,,,,,,,,,,,,,,,,,,,,,,,,,,,,,,,,,,,,,,,,,,,,,,,,
2,BanPho TSG-A-T4(P3) 1:3:X,CB20,2,"3,4",,,16:11 ,16:43 ,16:43 ,16:59 ,16:59 ,17:31 ,17:48,18:48,20:55,,,,,,,,,,,,,,,,,,,,,,,,,,,,,,,,,,,,,,,,,,,,,,,,,,,,,,,,,,,,,,
3,BanPho TSG-A-T1-T2-T3(P3) 1:6:X,CC13,3,"1,2",,,15:24 ,16:11 ,16:11 ,16:27 ,16:27 ,16:59 ,19:00,19:30,20:35,21:15,,,,,,,,,,,,,,,,,,,,,,,,,,,,,,,,,,,,,,,,,,,,,,,,,,,,,,,,,,,,,
4,BanPho TSG-A-T1-T2-T3(P3) 1:6:X,CC13,4,"3,4",,,20:07 ,20:39 ,20:39 ,20:55 ,20:55 ,21:27 ,23:01,23:31,00:30,01:10,,,,,,,,,,,,,,,,,,,,,,,,,,,,,,,,,,,,,,,,,,,,,,,,,,,,,,,,,,,,,
5,BanPho TSG-A-T1-T2-T3(P3) 1:6:X,CC13,5,"1,2",,,23:03 ,23:35 ,23:35 ,23:51 ,23:51 ,0:53 ,02:10,02:40,03:40,04:20,,,,,,,,,,,,,,,,,,,,,,,,,,,,,,,,,,,,,,,,,,,,,,,,,,,,,,,,,,,,,
6,BanPho TSG-A-T1-T2-T3(P3) 1:6:X,CC13,6,"3,4",,,2:29 ,4:31 ,4:31 ,4:47 ,4:47 ,5:19 ,05:20,05:50,07:45,08:23,,,,,,,,,,,,,,,,,,,,,,,,,,,,,,,,,,,,,,,,,,,,,,,,,,,,,,,,,,,,,
7,BanPho TSG-A-T4(P3) 1:3:X,CB20,7,"1,2",,,23:35 ,0:37 ,0:37 ,0:53 ,0:53 ,1:25 ,06:00,06:34,09:00,,,,,,,,,,,,,,,,,,,,,,,,,,,,,,,,,,,,,,,,,,,,,,,,,,,,,,,,,,,,,,
8,BanPho TSG-A-T1-T2-T3(P3) 1:6:X,CC13,8,"3,4",,,8:00 ,8:32 ,8:32 ,8:48 ,8:48 ,9:20 ,10:10,10:45,12:30,13:09,,,,,,,,,,,,,,,,,,,,,,,,,,,,,,,,,,,,,,,,,,,,,,,,,,,,,,,,,,,,,
9,BanPho TSG-A-T4(P3) 1:3:X,CB20,9,"1,2",,,9:20 ,9:52 ,9:52 ,10:08 ,10:08 ,10:40 ,13:35,14:09,15:08,,,,,,,,,,,,,,,,,,,,,,,,,,,,,,,,,,,,,,,,,,,,,,,,,,,,,,,,,,,,,,
1,GW1 (G3)1:4:X,GC20,1,7,,,21:27 ,21:59 ,21:59 ,22:15 ,22:15 ,22:47 ,23:29,00:03,02:57,03:29,,,,,,,,,,,,,,,,,,,,,,,,,,,,,,,,,,,,,,,,,,,,,,,,,,,,,,,,,,,,,
2,GW1 (G3)1:4:X,GC20,2,7,,,2:45 ,4:47 ,4:47 ,5:03 ,5:03 ,5:35 ,05:49,06:23,08:59,09:27,,,,,,,,,,,,,,,,,,,,,,,,,,,,,,,,,,,,,,,,,,,,,,,,,,,,,,,,,,,,,
3,GW1 (G3)1:4:X,GC20,3,7,,,9:36 ,10:08 ,10:08 ,10:24 ,10:24 ,10:56 ,11:28,12:02,14:54,15:26,,,,,,,,,,,,,,,,,,,,,,,,,,,,,,,,,,,,,,,,,,,,,,,,,,,,,,,,,,,,,
4,GW1 (G3)1:4:X,GC20,4,7,,,15:24 ,16:11 ,16:11 ,16:27 ,16:27 ,16:59 ,17:27,18:01,21:00,21:28,,,,,,,,,,,,,,,,,,,,,,,,,,,,,,,,,,,,,,,,,,,,,,,,,,,,,,,,,,,,,
1,GW2 (C3) 1:3:X,KC22,1,8,,,16:43 ,17:15 ,17:15 ,17:31 ,17:31 ,18:33 ,20:12,20:40,00:30,,,,,,,,,,,,,,,,,,,,,,,,,,,,,,,,,,,,,,,,,,,,,,,,,,,,,,,,,,,,,,
2,"GW2 (C3,C2,C5) 1:3:X",KC13,2,8,,,20:55 ,21:27 ,21:27 ,21:43 ,21:43 ,22:15 ,00:34,01:11,"04:12, 03:14",,,,,,,,,,,,,,,,,,,,,,,,,,,,,,,,,,,,,,,,,,,,,,,,,,,,,,,,,,,,,,
3,GW2 (C3) 1:3:X,KC22,3,8,,,0:37 ,1:09 ,1:09 ,1:25 ,1:25 ,1:57 ,04:15,04:43,08:42,,,,,,,,,,,,,,,,,,,,,,,,,,,,,,,,,,,,,,,,,,,,,,,,,,,,,,,,,,,,,,
4,"GW2 (C3,C2,C5) 1:3:X",KC13,4,8,,,5:19 ,5:51 ,5:51 ,6:07 ,6:07 ,6:39 ,08:00,08:37,"11:06,12:35",,,,,,,,,,,,,,,,,,,,,,,,,,,,,,,,,,,,,,,,,,,,,,,,,,,,,,,,,,,,,,
5,GW2 (C3) 1:3:X,KC22,5,8,,,9:04 ,9:36 ,9:36 ,9:52 ,9:52 ,10:24 ,11:26,11:54,16:20,,,,,,,,,,,,,,,,,,,,,,,,,,,,,,,,,,,,,,,,,,,,,,,,,,,,,,,,,,,,,,
6,"GW2 (C3,C2) 1:3:X",KC13,6,8,,,13:16 ,13:48 ,13:48 ,14:04 ,14:04 ,14:36 ,15:11,15:48,"20:37, 21:08",,,,,,,,,,,,,,,,,,,,,,,,,,,,,,,,,,,,,,,,,,,,,,,,,,,,,,,,,,,,,,
1,Samrong TSG1-A (S4) 1:4:X,SC18,1,5,,,13:32 ,14:04 ,14:04 ,14:20 ,14:20 ,14:52 ,16:26,16:46,19:30,20:00,,,,,,,,,,,,,,,,,,,,,,,,,,,,,,,,,,,,,,,,,,,,,,,,,,,,,,,,,,,,,
2,Samrong TSG1-A-T1-T2 (S4) 1:4:X,SC25,2,6,,,14:04 ,14:36 ,14:36 ,14:52 ,14:52 ,15:24 ,17:00,17:20,20:00,20:30,,,,,,,,,,,,,,,,,,,,,,,,,,,,,,,,,,,,,,,,,,,,,,,,,,,,,,,,,,,,,
3,Samrong TSG1-A (S4) 1:4:X,SC18,3,5,,,19:05 ,20:07 ,20:07 ,20:23 ,20:23 ,20:55 ,22:10,22:30,01:30,02:00,,,,,,,,,,,,,,,,,,,,,,,,,,,,,,,,,,,,,,,,,,,,,,,,,,,,,,,,,,,,,
4,Samrong TSG1-A-T1-T2 (S4) 1:4:X,SC25,4,6,,,20:39 ,21:11 ,21:11 ,21:27 ,21:27 ,21:59 ,22:30,22:50,01:45,02:15,,,,,,,,,,,,,,,,,,,,,,,,,,,,,,,,,,,,,,,,,,,,,,,,,,,,,,,,,,,,,
5,Samrong TSG1-A (S4) 1:4:X,SC18,5,5,,,1:09 ,1:41 ,1:41 ,1:57 ,1:57 ,2:29 ,04:59,05:19,08:15,08:30,,,,,,,,,,,,,,,,,,,,,,,,,,,,,,,,,,,,,,,,,,,,,,,,,,,,,,,,,,,,,
6,Samrong TSG1-A-T1-T2 (S4) 1:4:X,SC25,6,6,,,1:41 ,2:13 ,2:13 ,2:29 ,2:29 ,3:01 ,05:20,05:40,08:45,09:15,,,,,,,,,,,,,,,,,,,,,,,,,,,,,,,,,,,,,,,,,,,,,,,,,,,,,,,,,,,,,
7,Samrong TSG1-A (S4) 1:4:X,SC18,7,5,,,8:32 ,9:04 ,9:04 ,9:20 ,9:20 ,9:52 ,10:35,10:55,13:45,14:15,,,,,,,,,,,,,,,,,,,,,,,,,,,,,,,,,,,,,,,,,,,,,,,,,,,,,,,,,,,,,
8,Samrong TSG1-A-T1-T2 (S4) 1:4:X,SC25,8,6,,,8:48 ,9:20 ,9:20 ,9:36 ,9:36 ,10:08 ,11:10,11:30,14:15,15:10,,,,,,,,,,,,,,,,,,,,,,,,,,,,,,,,,,,,,,,,,,,,,,,,,,,,,,,,,,,,,
1,TAW (T9) 1:1:X,TC02,1,9,,,17:47 ,18:49 ,18:49 ,19:05 ,19:05 ,20:07 ,21:00,21:20,08:10,,,,,,,,,,,,,,,,,,,,,,,,,,,,,,,,,,,,,,,,,,,,,,,,,,,,,,,,,,,,,,