﻿โตโยต้า,Route,Truck ,Shipping lane,Shopping 25min,,Prepare 15min,,Checker 25min,,Waiting Loading time 2hrs.,รอบเวลามารับที่ TSG1-A,,รอบกำหนดเวลาส่ง TMT ( 05Jan'17-29Jan'17),,ขอปรับเวลามารับที่TSG1-A,,,,,,
BanPho (P3) 1:6:X,CC13,4,"1,2",21:55 น.,22:20 น.,22:20 น.,22:35 น.,22:35 น.,23:00 น.,2:30 น.,1:30,1:55,2:45,3:30,Brerak 00:00-00:30,,,,,,
GW1 (G3) 1:6:X,GC20,3,8,22:55 น.,23:15 น.,23:30 น.,23:45 น.,0:45 น.,1:00 น.,2:20 น.,3:20,3:43,7:40,8:18,Brerak 00:00-00:30,,,,,,
GW2 (C3) 1:6:X,GC20,3,8,23:15 น.,23:30 น.,23:45 น.,0:00 น.,1:00 น.,1:10 น.,2:10 น.,3:20,3:43,8:23,8:47,Brerak 00:00-00:30,,,,,,
BanPho (P3) 1:6:X,CC13,5,"3,4",0:55 น.,1:20 น.,1:20 น.,1:35 น.,2:00 น.,2:25 น.,2:35 น.,5:00,5:25,7:50,8:35,Brerak 03:00-04:00,,,,,,
Samrong TSG1-A-T1-T2 (S4) 1:10:X,SC25,5,5,23:30 น.,23:55 น.,0:00 น.,0:15 น.,1:10 น.,1:35 น.,2:45 น.,4:20,4:40,7:30,8:00,Brerak 03:00-04:00,,,,,,
Samrong TSG1-A-TSG1-A-T3 (S4) 1:10:X,SC18,6,6,0:30 น.,0:55 น.,0:55 น.,1:10 น.,1:35 น.,2:00 น.,2:40 น.,4:40,5:00,8:20,8:50,,,,,,,
GW2 (C5)  1:1:X,GC10,1,9,4:20 น.,4:45 น.,4:45 น.,5:00 น.,5:00 น.,5:25 น.,1:55 น.,7:20,7:35,12:45,13:01,,,,,,,
GW1 (G3) 1:6:X,GC20,4,9,4:45 น.,5:05 น.,5:05 น.,5:20 น.,5:45 น.,6:00 น.,2:15 น.,8:15,8:38,10:51,11:29,TBM 7:45-8:00,,,,,,
GW2 (C3) 1:6:X,GC20,4,9,5:05 น.,5:20 น.,5:20 น.,5:35 น.,6:00 น.,6:10 น.,2:05 น.,8:15,8:38,12:30,12:54,TBM 7:45-8:00,,,,,,
BanPho (P3) 1:6:X,CC13,6,"1,2",6:35 น.,7:00 น.,7:00 น.,7:15 น.,7:15 น.,7:40 น.,1:50 น.,9:30,9:55,10:45,11:30,,,,,,,
Samrong TSG1-A-T1-T2 (S4) 1:10:X,SC25,7,5,7:00 น.,7:25 น.,7:25 น.,7:40 น.,8:00 น.,8:25 น.,1:15 น.,9:40,10:00,13:00,13:30,,,,,,,
Samrong TSG1-A-TSG1-A-T3 (S4) 1:10:X,SC18,8,6,7:25,7:50 น.,8:00 น.,8:15 น.,8:25 น.,8:50 น.,1:50 น.,10:40,11:00,14:00,14:30,,,,,,,
GW1 (G3) 1:6:X,GC20,5,8,8:00 น.,8:20 น.,8:35 น.,8:50 น.,9:05 น.,9:20 น.,1:40 น.,11:00,11:23,14:40,15:18,,,,,,,
GW2 (C3) 1:6:X,GC20,5,8,8:20 น.,8:35 น.,8:50 น.,9:05 น.,9:20 น.,9:30 น.,1:30 น.,11:00,11:23,15:23,15:47,,,,,,,
BanPho (P3) 1:6:X,CC13,1,"3,4",10:10 น.,10:35 น.,10:35 น.,10:50 น.,10:50 น.,11:15 น.,2:10 น.,13:25,13:50,14:40,15:25,Break12:00-13:00,,,,,,
TAW (T9) 1:1:X,TC01-A,1,9,10:45 น.,11:10 น.,11:20 น.,11:35 น.,11:35 น.,12:00 น.,1:40 น.,13:40,14:00,15:50,16:10,,,,,,,
GW1 (G3) 1:6:X,GC20,6,9,11:10 น.,11:30 น.,11:45 น.,12:00 น.,13:05 น.,13:20 น.,2:00 น.,15:20,15:43,19:40,20:18,,,,,,,
GW2 (C3) 1:6:X,GC20,6,9,11:30 น.,11:45 น.,13:00 น.,13:15 น.,13:20 น.,13:30 น.,1:50 น.,15:20,15:43,20:23,20:47,,,,,,,
Samrong TSG1-A-T1-T2 (S4) 1:10:X,SC25,1,5,13:00 น.,13:25 น.,13:25 น.,13:40 น.,13:40 น.,14:05 น.,1:55 น.,16:00,16:20,19:30,20:00,,,,,,,
BanPho (P3) 1:6:X,CC13,2,"1,2",13:25 น.,13:50 น.,13:50 น.,14:05 น.,14:10 น.,14:35 น.,2:00 น.,16:35,17:00,19:55,20:40,,,,,,,
Samrong TSG1-A-TSG1-A-T3 (S4) 1:10:X,SC18,2,6,14:05 น.,14:30 น.,14:30 น.,14:45 น.,14:45 น.,15:10 น.,1:55 น.,17:05,17:25,20:30,21:00,,,,,,,
GW1 (G3) 1:6:X,GC20,1,8,14:30 น.,14:50 น.,15:00 น.,15:15 น.,15:30 น.,15:45 น.,4:35 น.,20:20,20:43,22:50,23:28,No OT 17:00-19:45,,,,,,
GW2 (C3) 1:6:X,GC20,1,8,14:50 น.,15:05 น.,15:15 น.,15:30 น.,15:45 น.,15:55 น.,4:25 น.,20:20,20:43,0:30,0:54,No OT 17:00-19:45,,,,,,
BanPho (P3) 1:6:X,CC13,3,"3,4",15:05 น.,15:30 น.,15:30 น.,15:45 น.,16:25 น.,16:50 น.,4:40 น.,21:30,21:55,22:45,23:30,No OT 17:00-19:45,,,,,,
Samrong TSG1-A-T1-T2 (S4) 1:10:X,SC25,3,5,20:00 น.,20:25 น.,20:25 น.,20:40 น.,20:40 น.,21:05 น.,1:25 น.,22:30,22:50,1:45,2:15,,,,,,,
Samrong TSG1-A-TSG1-A-T3 (S4) 1:10:X,SC18,4,6,20:25 น.,20:50 น.,20:50 น.,21:05 น.,21:05 น.,21:30 น.,1:20 น.,22:50,23:10,2:00,2:30,,,,,,,
GW1 (G3) 1:6:X,GC20,2,9,20:50 น.,21:10 น.,21:10 น.,21:25 น.,21:30 น.,21:45 น.,1:22 น.,23:07,23:30,2:40,3:24,,,,,,,
GW2 (C3) 1:6:X,GC20,2,9,21:10 น.,0:45 น.,21:25 น.,21:40 น.,21:45 น.,21:55 น.,1:12 น.,23:07,23:30,3:30,3:54,,,,,,,
Samrong TSG1-A-TSG1-A-T3 (S4) 1:10:X,SC18,6,6,0:30 น.,0:55 น.,0:55 น.,1:10 น.,1:35 น.,1:45 น.,2:40 น.,4:40,5:00,8:20,8:50,Brerak 03:00-04:00,,,,,,
Samrong TSG1-A-T1-T2 (S4) 1:10:X,SC25,7,5,6:55 น.,7:20 น.,7:25 น.,7:40 น.,8:00 น.,8:10 น.,1:25 น.,9:50,10:10,13:00,13:30,,,,,,,
Samrong TSG1-A-TSG1-A-T3 (S4) 1:10:X,SC18,8,6,7:20,7:45,8:00 น.,8:15 น.,8:25 น.,8:35 น.,1:50 น.,10:40,11:00,14:00,14:30,,,,,,,
Samrong TSG1-A-T1-T2 (S4) 1:10:X,SC25,1,5,13:00 น.,13:25 น.,13:25 น.,13:40 น.,13:40 น.,13:50 น.,1:55 น.,16:00,16:20,19:30,20:00,,,,,,,
Samrong TSG1-A-TSG1-A-T3 (S4) 1:10:X,SC18,2,6,14:05 น.,14:30 น.,14:30 น.,14:45 น.,14:45 น.,14:55 น.,1:55 น.,17:05,17:25,20:30,21:00,,,,,,,
Samrong TSG1-A-T1-T2 (S4) 1:10:X,SC25,3,5,20:00 น.,20:25 น.,20:25 น.,20:40 น.,20:40 น.,20:50 น.,1:25 น.,22:30,22:50,1:45,2:15,,,,,,,
Samrong TSG1-A-TSG1-A-T3 (S4) 1:10:X,SC18,4,6,20:25 น.,20:50 น.,20:50 น.,21:05 น.,21:05 น.,21:15 น.,1:20 น.,22:50,23:10,2:00,2:30,,,,,,,
Samrong TSG1-A-T1-T2 (S4) 1:10:X,SC25,5,5,23:30 น.,23:55 น.,0:30 น.,0:45 น.,1:10 น.,1:20 น.,2:45 น.,4:20,4:40,7:30,8:00,Brerak 03:00-04:00,,,,,,
